module gitlab.com/adrianolmedo/mi

go 1.21.4

require (
	github.com/jackc/pgx/v5 v5.5.5
	github.com/peterbourgon/ff/v3 v3.4.0
)

require (
	github.com/andybalholm/brotli v1.0.5 // indirect
	github.com/google/uuid v1.5.0 // indirect
	github.com/klauspost/compress v1.17.0 // indirect
	github.com/mattn/go-colorable v0.1.13 // indirect
	github.com/mattn/go-isatty v0.0.20 // indirect
	github.com/mattn/go-runewidth v0.0.15 // indirect
	github.com/rivo/uniseg v0.2.0 // indirect
	github.com/valyala/bytebufferpool v1.0.0 // indirect
	github.com/valyala/fasthttp v1.51.0 // indirect
	github.com/valyala/tcplisten v1.0.0 // indirect
	golang.org/x/sys v0.15.0 // indirect
)

require (
	github.com/gofiber/fiber/v2 v2.52.4
	github.com/jackc/pgpassfile v1.0.0 // indirect
	github.com/jackc/pgservicefile v0.0.0-20221227161230-091c0ba34f0a // indirect
	golang.org/x/crypto v0.17.0 // indirect
	golang.org/x/text v0.14.0 // indirect
)
